#------------------------------ ALFA Stations ---------------------------------
[B7L1]
shifte=[-0.26,-0.54,+1.22]
shifts=[-0.29,-0.46,+1.14]

[A7L1]
shifte=[-0.34,-0.55,-2.78]
shifts=[-0.33,-0.49,-2.52]

[A7R1]
shifte=[+0.22,-0.17,+8.30]
shifts=[+0.28,-0.17,+8.33]

[B7R1]
shifte=[0.35,-0.22,-0.12]
shifts=[0.31,-0.08,-0.15]

#------------------------------ Romain Pots -----------------------------------
[B7L1U]
psinrpss=[46.561,277.095,-38.0035];[46.6525,-42.334,-38.032];[-172.52,249.9805,-37.93]
mm2lvdtfit=509.7902,-9723
ps1xlvdtpolyfit=1.341119e-014, -8.848927e-012, -5.301937e-007, 1.241142e+002
ps1ylvdtpolyfit=-4.468621e-014, -9.363160e-011, 1.962283e-003, 2.275980e+002
ps1zlvdtpolyfit=-1.382688e-014, 7.171551e-011, -4.451357e-007, 1.530590e+002
ps2xlvdtpolyfit=1.366902e-014, 2.371598e-010, 3.131584e-007, 1.240382e+002
ps2ylvdtpolyfit=-3.704755e-014, 2.515518e-012, 1.961573e-003, 2.275143e+002
ps2zlvdtpolyfit=-1.649187e-014, 2.742556e-011, -1.632508e-006, -1.663349e+002
ps3xlvdtpolyfit=1.801627e-015, 5.836226e-011, 1.313984e-006, -9.496683e+001
ps3ylvdtpolyfit=-3.497869e-014, -1.223534e-010, 1.967830e-003, 2.274102e+002
ps3zlvdtpolyfit=-1.324245e-014, 7.590306e-011, -1.469995e-007, 1.260467e+002

idealrefdetpoints=[-77.5,-1,35.2];[-77.5,-1,88.2];[-77.5,-1,35.2]
realrefdetpoints= [-77.752,-1,34.92];[-77.618,-1,87.956];[-77.5,-1,35.2]
realdetedgeypos=113.449,112.955

[B7L1L]
psinrpss=[46.5525,277.196,-37.9895];[46.6535,-29.0475,-38.021];[-189.565,-2.0445,-65.0365]
mm2lvdtfit=-509.0239,-10174
ps1xlvdtpolyfit=1.238674e-014, -2.653354e-010, 2.030741e-006, 1.239900e+002
ps1ylvdtpolyfit=-2.407011e-014, 1.759851e-010, -1.953833e-003, -2.285462e+002
ps1zlvdtpolyfit=1.642392e-014, -2.173608e-010, 8.831074e-007, -1.530284e+002
ps2xlvdtpolyfit=-1.864829e-014, 1.335517e-010, 8.263534e-007, 1.241086e+002
ps2ylvdtpolyfit=-5.093974e-014, 6.555303e-010, -1.956501e-003, -2.287132e+002
ps2zlvdtpolyfit=3.218002e-014, -2.196285e-010, -4.138317e-007, 1.532134e+002
ps3xlvdtpolyfit=7.186307e-015, 4.171655e-011, 4.311976e-007, -1.121631e+002
ps3ylvdtpolyfit=-8.068800e-014, 1.008636e-009, -1.966186e-003, -2.553527e+002
ps3zlvdtpolyfit=-5.709281e-015, 7.067668e-011, -4.589717e-007, 1.261815e+002

idealrefdetpoints=[-77.5,-1,35.2];[-77.5,-1,88.2];[-77.5,-1,35.2]
realrefdetpoints=[-77.3,-1,34.966];[-77.299,-1,87.959];[-77.08,-1,34.99]
realdetedgeypos=112.794,113.621

[A7L1U]
psinrpss=[46.828,277.0786667,-37.96633333];[46.587,-42.151,-37.99266667];[-172.745,249.6495,-37.9645]
mm2lvdtfit=514.8967,-10412
ps1xlvdtpolyfit=3.092767e-015, 1.139572e-011, 1.404418e-006, 1.243692e+002
ps1ylvdtpolyfit=8.261248e-014, -9.919885e-010, 1.932351e-003, 2.287850e+002
ps1zlvdtpolyfit=8.378570e-015, 2.358792e-011, -2.509072e-006, 1.519637e+002
ps2xlvdtpolyfit=7.732051e-016, -1.643452e-011, 1.409757e-006, 1.240719e+002
ps2ylvdtpolyfit=1.089421e-013, -7.179650e-010, 1.931217e-003, 2.285404e+002
ps2zlvdtpolyfit=-1.784747e-014, -5.868587e-011, -2.587299e-007, -1.672220e+002
ps3xlvdtpolyfit=3.812051e-015, 5.180939e-011, 1.299561e-006, -9.530984e+001
ps3ylvdtpolyfit=1.029574e-013, -9.517745e-010, 1.934705e-003, 2.287011e+002
ps3zlvdtpolyfit=-2.130961e-015, -2.851104e-011, -1.531189e-006, 1.245370e+002

idealrefdetpoints=[-77.5,-1,35.2];[-77.5,-1,88.2];[-77.5,-1,35.2]
realrefdetpoints=[-77.915,-1,34.929];[-77.875,-1,87.852];[-77.598,-1,35.089]
realdetedgeypos=113.468,113.026

[A7L1L]
psinrpss=[46.7025,276.9895,-37.9765];[46.386,-29.154,-37.9905];[-189.5175,-1.8845,-65.0615]
mm2lvdtfit=-509.8894,-9808
ps1xlvdtpolyfit=9.289545e-015, -7.965575e-011, 5.136624e-007, 1.240094e+002
ps1ylvdtpolyfit=6.261538e-015, 5.430627e-012, -1.958550e-003, -2.277636e+002
ps1zlvdtpolyfit=2.233788e-014, -1.408897e-010, 5.159703e-007, -1.537905e+002
ps2xlvdtpolyfit=-1.012215e-015, 1.074628e-011, 4.864828e-007, 1.238120e+002
ps2ylvdtpolyfit=-8.850566e-016, 1.006481e-010, -1.959558e-003, -2.277844e+002
ps2zlvdtpolyfit=2.390854e-014, -1.726307e-010, 5.492771e-008, 1.523363e+002
ps3xlvdtpolyfit=-1.943757e-015, 8.699408e-011, 1.221278e-006, -1.121832e+002
ps3ylvdtpolyfit=-1.260925e-014, -7.667063e-011, -1.963321e-003, -2.545713e+002
ps3zlvdtpolyfit=9.319402e-015, -7.327784e-011, 3.100604e-007, 1.251326e+002

idealrefdetpoints=[-77.5,-1,35.2];[-77.5,-1,88.2];[-77.5,-1,35.2]
realrefdetpoints=[-77.68,-1,34.987];[-77.665,-1,88.031];[-77.598,-1,35.089]
realdetedgeypos=113.202,113.022

[A7R1U]
psinrpss=[47.391,290.072,-37.9885];[46.554,-29.1485,-37.9585];[-172.768,-1.4995,-37.903]
mm2lvdtfit=507.3961,-10095
ps1xlvdtpolyfit=-1.194878e-014, 5.531763e-011, 4.360511e-007, 1.246859e+002
ps1ylvdtpolyfit=-8.654648e-014, 5.946301e-011, 1.975085e-003, 2.282501e+002
ps1zlvdtpolyfit=2.885548e-014, -1.628796e-010, 2.136010e-006, 1.662635e+002
ps2xlvdtpolyfit=-1.373248e-015, -1.238436e-010, 9.013235e-007, 1.238961e+002
ps2ylvdtpolyfit=-8.073490e-014, 1.363408e-010, 1.975197e-003, 2.285271e+002
ps2zlvdtpolyfit=1.657055e-014, -2.388414e-010, 3.394907e-006, -1.529355e+002
ps3xlvdtpolyfit=6.720405e-015, -4.144589e-013, 7.364668e-008, -9.542538e+001
ps3ylvdtpolyfit=-5.844779e-014, 4.401847e-011, 1.979129e-003, 2.282301e+002
ps3zlvdtpolyfit=9.050703e-015, -6.264682e-011, 3.296947e-006, -1.253579e+002

idealrefdetpoints=[-77.5,-1,35.2];[-77.5,-1,88.2];[-77.5,-1,35.2]
realrefdetpoints=[-77.31,-1,35.021];[-77.311,-1,88.013];[-77.1,-1,34.93]
realdetedgeypos=113.056,113.076

[A7R1L]
psinrpss=[47.304,277.159,-37.9695];[47.139,-29.107,-37.957];[-189.886,250.122,-65.0225]
mm2lvdtfit=-509.0325,-10175
ps1xlvdtpolyfit=3.380523e-015, 5.915179e-011, 1.943529e-006, 1.248905e+002
ps1ylvdtpolyfit=5.647193e-014, -6.561402e-010, -1.964973e-003, -2.278907e+002
ps1zlvdtpolyfit=5.724000e-015, -3.779494e-011, -1.939031e-006, -1.534572e+002
ps2xlvdtpolyfit=-4.603908e-015, 7.645602e-011, 2.188152e-006, 1.245849e+002
ps2ylvdtpolyfit=5.219690e-014, -4.816852e-010, -1.964029e-003, -2.283909e+002
ps2zlvdtpolyfit=7.817786e-015, -1.373871e-010, -2.468838e-006, 1.527885e+002
ps3xlvdtpolyfit=9.185353e-015, -2.091858e-011, 2.159486e-006, -1.123198e+002
ps3ylvdtpolyfit=4.352411e-014, -4.597589e-010, -1.973251e-003, -2.551275e+002
ps3zlvdtpolyfit=8.482401e-015, -4.351778e-011, -3.122189e-006, -1.265284e+002

idealrefdetpoints=[-77.5,-1,35.2];[-77.5,-1,88.2];[-77.5,-1,35.2]
realrefdetpoints=[-77.587,-1,34.862];[-77.595,-1,87.883];[-77.5,-1,35.2]
realdetedgeypos=113.209,112.871

[B7R1U]
psinrpss=[47.175,290.3555,-38.0025];[47.0365,-28.9955,-37.9575];[-172.6135,-1.7385,-37.861]
mm2lvdtfit=513.3904,-9927
ps1xlvdtpolyfit=-3.172379e-014, 3.403514e-011, 3.217278e-006, 1.245867e+002
ps1ylvdtpolyfit=-1.337524e-014, 3.107998e-010, 1.945025e-003, 2.275797e+002
ps1zlvdtpolyfit=3.145727e-014, -1.534324e-010, 4.135544e-006, 1.656827e+002
ps2xlvdtpolyfit=8.692088e-016, 1.493993e-011, 1.080103e-006, 1.243650e+002
ps2ylvdtpolyfit=-6.624159e-015, 3.670224e-010, 1.947007e-003, 2.281843e+002
ps2zlvdtpolyfit=1.651663e-014, -1.258615e-010, 5.434757e-006, -1.536334e+002
ps3xlvdtpolyfit=7.732653e-015, 1.548619e-011, -3.062098e-008, -9.523038e+001
ps3ylvdtpolyfit=8.709838e-015, 2.573080e-010, 1.951046e-003, 2.278477e+002
ps3zlvdtpolyfit=2.050255e-014, -8.286102e-011, 4.526148e-006, -1.263740e+002

idealrefdetpoints=[-77.5,-1,35.2];[-77.5,-1,88.2];[-77.5,-1,35.2]
realrefdetpoints=[-77.492,-1,34.986];[-77.531,-1,87.955];[-77.46,-1,35.02]
realdetedgeypos=113.252,112.733

[B7R1L]
psinrpss=[46.7195,277.032,-38.0025];[46.633,-29.2145,-38.0615];[-189.8245,250.034,-65.082]
mm2lvdtfit=-511.1658,-9990
ps1xlvdtpolyfit=-9.994014e-016, 5.399811e-011, 9.811659e-007, 1.242813e+002
ps1ylvdtpolyfit=1.231230e-014, 3.843925e-012, -1.956659e-003, -2.274955e+002
ps1zlvdtpolyfit=-8.936687e-015, 2.241850e-010, -5.993750e-006, -1.549472e+002
ps2xlvdtpolyfit=9.323390e-015, -2.661009e-011, 1.152752e-006, 1.242541e+002
ps2ylvdtpolyfit=1.391311e-014, 2.931819e-011, -1.952577e-003, -2.285622e+002
ps2zlvdtpolyfit=-1.435606e-014, 1.184015e-010, -5.045250e-006, 1.512695e+002
ps3xlvdtpolyfit=-1.377395e-014, 1.379849e-010, 2.444726e-006, -1.122642e+002
ps3ylvdtpolyfit=-1.076822e-014, 1.364921e-010, -1.960320e-003, -2.544834e+002
ps3zlvdtpolyfit=-9.305775e-015, 6.902445e-011, -5.352855e-006, -1.279780e+002

idealrefdetpoints=[-77.5,-1,35.2];[-77.5,-1,88.2];[-77.5,-1,35.2]
realrefdetpoints=[-77.995,-1,34.989];[-77.898,-1,87.929];[-77.67,-1,34.89]
realdetedgeypos=113.088,113.275
